{
  "id": "hello-world-auth",
  "realm": "hello-world-auth",
  "notBefore": 1535382393,
  "revokeRefreshToken": false,
  "refreshTokenMaxReuse": 0,
  "accessTokenLifespan": 300,
  "accessTokenLifespanForImplicitFlow": 900,
  "ssoSessionIdleTimeout": 1800,
  "ssoSessionMaxLifespan": 36000,
  "offlineSessionIdleTimeout": 2592000,
  "offlineSessionMaxLifespanEnabled": false,
  "offlineSessionMaxLifespan": 5184000,
  "accessCodeLifespan": 60,
  "accessCodeLifespanUserAction": 300,
  "accessCodeLifespanLogin": 1800,
  "actionTokenGeneratedByAdminLifespan": 43200,
  "actionTokenGeneratedByUserLifespan": 300,
  "enabled": true,
  "sslRequired": "external",
  "registrationAllowed": true,
  "registrationEmailAsUsername": false,
  "rememberMe": false,
  "verifyEmail": false,
  "loginWithEmailAllowed": true,
  "duplicateEmailsAllowed": false,
  "resetPasswordAllowed": false,
  "editUsernameAllowed": false,
  "bruteForceProtected": false,
  "permanentLockout": false,
  "maxFailureWaitSeconds": 900,
  "minimumQuickLoginWaitSeconds": 60,
  "waitIncrementSeconds": 60,
  "quickLoginCheckMilliSeconds": 1000,
  "maxDeltaTimeSeconds": 43200,
  "failureFactor": 30,
  "roles": {
    "realm": [
      {
        "id": "ed14579e-83df-4eb1-8a0b-77e15eb45bba",
        "name": "uma_authorization",
        "description": "${role_uma_authorization}",
        "composite": false,
        "clientRole": false,
        "containerId": "hello-world-auth"
      },
      {
        "id": "cf3c761d-7fc3-4642-a7f3-bdd726e67a74",
        "name": "selfservice",
        "description": "${selfservice}",
        "composite": false,
        "clientRole": false,
        "containerId": "hello-world-auth"
      },
      {
        "id": "cb0b6717-d364-4654-969c-e2c217e9c34c",
        "name": "public",
        "description": "public role, um grant access zu public-app zu testen",
        "composite": false,
        "clientRole": false,
        "containerId": "hello-world-auth"
      },
      {
        "id": "23ea2af4-d2f8-4367-8491-d5d17ea26749",
        "name": "offline_access",
        "description": "${role_offline-access}",
        "composite": false,
        "clientRole": false,
        "containerId": "hello-world-auth"
      },
      {
        "id": "a286e83f-e259-4fae-83f0-d3062dc9524b",
        "name": "user",
        "composite": false,
        "clientRole": false,
        "containerId": "hello-world-auth"
      },
      {
        "id": "47c6eaf8-833c-4b90-98ec-a09f724c9d72",
        "name": "umgebung",
        "composite": false,
        "clientRole": false,
        "containerId": "hello-world-auth"
      }
    ],
    "client": {
      "realm-management": [
        {
          "id": "d7dccc94-f89d-4b19-8c39-e2e9d2209f96",
          "name": "query-realms",
          "description": "${role_query-realms}",
          "composite": false,
          "clientRole": true,
          "containerId": "23b8220f-fb43-4ddc-9f1d-50c3fad536dd"
        },
        {
          "id": "18a7136f-1979-4982-91e8-b775e869db88",
          "name": "view-authorization",
          "description": "${role_view-authorization}",
          "composite": false,
          "clientRole": true,
          "containerId": "23b8220f-fb43-4ddc-9f1d-50c3fad536dd"
        },
        {
          "id": "aad8503e-4df0-45f9-b806-cad1346aa326",
          "name": "query-clients",
          "description": "${role_query-clients}",
          "composite": false,
          "clientRole": true,
          "containerId": "23b8220f-fb43-4ddc-9f1d-50c3fad536dd"
        },
        {
          "id": "92537c7f-cf37-45a8-8a6d-6b034bb45f19",
          "name": "create-client",
          "description": "${role_create-client}",
          "composite": false,
          "clientRole": true,
          "containerId": "23b8220f-fb43-4ddc-9f1d-50c3fad536dd"
        },
        {
          "id": "d7a27352-1276-4500-b99f-9180de29f99d",
          "name": "manage-realm",
          "description": "${role_manage-realm}",
          "composite": false,
          "clientRole": true,
          "containerId": "23b8220f-fb43-4ddc-9f1d-50c3fad536dd"
        },
        {
          "id": "6fed7711-dd47-4fa6-9275-cf7c62ec5d64",
          "name": "impersonation",
          "description": "${role_impersonation}",
          "composite": false,
          "clientRole": true,
          "containerId": "23b8220f-fb43-4ddc-9f1d-50c3fad536dd"
        },
        {
          "id": "4e65ea71-3def-4a4e-8fd1-c01d9f490b8b",
          "name": "view-clients",
          "description": "${role_view-clients}",
          "composite": true,
          "composites": {
            "client": {
              "realm-management": [
                "query-clients"
              ]
            }
          },
          "clientRole": true,
          "containerId": "23b8220f-fb43-4ddc-9f1d-50c3fad536dd"
        },
        {
          "id": "654a5b1e-db9c-4986-993b-98c39eaf46d9",
          "name": "view-identity-providers",
          "description": "${role_view-identity-providers}",
          "composite": false,
          "clientRole": true,
          "containerId": "23b8220f-fb43-4ddc-9f1d-50c3fad536dd"
        },
        {
          "id": "fde40e23-3f0d-450b-a3ee-2bdc181caecf",
          "name": "query-users",
          "description": "${role_query-users}",
          "composite": false,
          "clientRole": true,
          "containerId": "23b8220f-fb43-4ddc-9f1d-50c3fad536dd"
        },
        {
          "id": "819aa38f-12d7-420d-8e8d-4e6030d3f3ae",
          "name": "view-users",
          "description": "${role_view-users}",
          "composite": true,
          "composites": {
            "client": {
              "realm-management": [
                "query-users",
                "query-groups"
              ]
            }
          },
          "clientRole": true,
          "containerId": "23b8220f-fb43-4ddc-9f1d-50c3fad536dd"
        },
        {
          "id": "bfbb36dd-ba54-43e5-8e31-809760e808a4",
          "name": "manage-events",
          "description": "${role_manage-events}",
          "composite": false,
          "clientRole": true,
          "containerId": "23b8220f-fb43-4ddc-9f1d-50c3fad536dd"
        },
        {
          "id": "53da8614-5155-453f-9ba5-1e7d3b649caf",
          "name": "manage-authorization",
          "description": "${role_manage-authorization}",
          "composite": false,
          "clientRole": true,
          "containerId": "23b8220f-fb43-4ddc-9f1d-50c3fad536dd"
        },
        {
          "id": "5c22e5ac-ab10-4450-9960-3965d403f3a6",
          "name": "view-events",
          "description": "${role_view-events}",
          "composite": false,
          "clientRole": true,
          "containerId": "23b8220f-fb43-4ddc-9f1d-50c3fad536dd"
        },
        {
          "id": "7c30e4ef-4db3-4e31-aaec-06d2199dc3b7",
          "name": "manage-users",
          "description": "${role_manage-users}",
          "composite": false,
          "clientRole": true,
          "containerId": "23b8220f-fb43-4ddc-9f1d-50c3fad536dd"
        },
        {
          "id": "a60e99c7-3d56-4538-930e-98b6d40fb91e",
          "name": "realm-admin",
          "description": "${role_realm-admin}",
          "composite": true,
          "composites": {
            "client": {
              "realm-management": [
                "query-realms",
                "view-authorization",
                "query-clients",
                "create-client",
                "impersonation",
                "manage-realm",
                "view-clients",
                "view-identity-providers",
                "query-users",
                "view-users",
                "manage-events",
                "manage-authorization",
                "view-events",
                "manage-users",
                "manage-clients",
                "manage-identity-providers",
                "view-realm",
                "query-groups"
              ]
            }
          },
          "clientRole": true,
          "containerId": "23b8220f-fb43-4ddc-9f1d-50c3fad536dd"
        },
        {
          "id": "e0305dbc-88cf-4554-bca6-6e4bc49e99ee",
          "name": "manage-clients",
          "description": "${role_manage-clients}",
          "composite": false,
          "clientRole": true,
          "containerId": "23b8220f-fb43-4ddc-9f1d-50c3fad536dd"
        },
        {
          "id": "e3318c88-c6ca-44ac-b341-1982e7ed8bb9",
          "name": "manage-identity-providers",
          "description": "${role_manage-identity-providers}",
          "composite": false,
          "clientRole": true,
          "containerId": "23b8220f-fb43-4ddc-9f1d-50c3fad536dd"
        },
        {
          "id": "9a50b5e5-9e1a-476e-bb1e-8391f03d793f",
          "name": "view-realm",
          "description": "${role_view-realm}",
          "composite": false,
          "clientRole": true,
          "containerId": "23b8220f-fb43-4ddc-9f1d-50c3fad536dd"
        },
        {
          "id": "f779c15f-d99a-4bc1-bb11-7a5044de476d",
          "name": "query-groups",
          "description": "${role_query-groups}",
          "composite": false,
          "clientRole": true,
          "containerId": "23b8220f-fb43-4ddc-9f1d-50c3fad536dd"
        }
      ],
      "my-resource-server": [
        {
          "id": "527c5ffe-bef2-444d-aa9e-04bd002d21bb",
          "name": "uma_protection",
          "composite": false,
          "clientRole": true,
          "containerId": "614b4ffa-78d0-4dd6-962d-9a771d6c0785"
        }
      ],
      "bearer-only-app1": [
        {
          "id": "a5ec3ff0-aad0-4238-a3ee-4af92b0c6366",
          "name": "uma_protection",
          "composite": false,
          "clientRole": true,
          "containerId": "7dea5e13-3436-447d-8297-b362881d6c5d"
        }
      ],
      "app-auth-vanilla": [
        {
          "id": "bcc0ebd8-455f-4915-926a-161ebf2690dc",
          "name": "uma_protection",
          "composite": false,
          "clientRole": true,
          "containerId": "e797470e-f129-4589-b220-35a2416b6e00"
        }
      ],
      "security-admin-console": [],
      "admin-cli": [],
      "broker": [
        {
          "id": "fc1e5442-1736-4eed-b2ad-ae50c101ec22",
          "name": "read-token",
          "description": "${role_read-token}",
          "composite": false,
          "clientRole": true,
          "containerId": "f5e274e6-1c15-4d73-af03-2c76040c464a"
        }
      ],
      "account": [
        {
          "id": "198a690f-8a6b-4ef3-8a70-603f0486fcd8",
          "name": "view-profile",
          "description": "${role_view-profile}",
          "composite": false,
          "clientRole": true,
          "containerId": "9e8e91a3-f268-48cf-a109-a83fa6a2abd9"
        },
        {
          "id": "e9c32b3e-4d2b-4c57-98de-956b4925dfd7",
          "name": "manage-account",
          "description": "${role_manage-account}",
          "composite": true,
          "composites": {
            "client": {
              "account": [
                "manage-account-links"
              ]
            }
          },
          "clientRole": true,
          "containerId": "9e8e91a3-f268-48cf-a109-a83fa6a2abd9"
        },
        {
          "id": "655a9492-4dd6-42c0-8fb1-d4361944ac28",
          "name": "manage-account-links",
          "description": "${role_manage-account-links}",
          "composite": false,
          "clientRole": true,
          "containerId": "9e8e91a3-f268-48cf-a109-a83fa6a2abd9"
        }
      ],
      "public-app": []
    }
  },
  "groups": [
    {
      "id": "58a9a22a-e4a3-473b-aa9c-0c96061701aa",
      "name": "Wata",
      "path": "/Wata",
      "attributes": {},
      "realmRoles": [],
      "clientRoles": {},
      "subGroups": []
    }
  ],
  "defaultRoles": [
    "offline_access",
    "uma_authorization"
  ],
  "requiredCredentials": [
    "password"
  ],
  "otpPolicyType": "totp",
  "otpPolicyAlgorithm": "HmacSHA1",
  "otpPolicyInitialCounter": 0,
  "otpPolicyDigits": 6,
  "otpPolicyLookAheadWindow": 1,
  "otpPolicyPeriod": 30,
  "otpSupportedApplications": [
    "FreeOTP",
    "Google Authenticator"
  ],
  "scopeMappings": [
    {
      "clientScope": "offline_access",
      "roles": [
        "offline_access"
      ]
    }
  ],
  "clients": [
    {
      "id": "0126ffbe-83f7-4935-87c7-b3d93405014a",
      "clientId": "public-app",
      "surrogateAuthRequired": false,
      "enabled": true,
      "clientAuthenticatorType": "client-secret",
      "secret": "**********",
      "redirectUris": [
        "http://localhost:8081/public/*"
      ],
      "webOrigins": [],
      "notBefore": 0,
      "bearerOnly": false,
      "consentRequired": false,
      "standardFlowEnabled": true,
      "implicitFlowEnabled": false,
      "directAccessGrantsEnabled": true,
      "serviceAccountsEnabled": false,
      "publicClient": true,
      "frontchannelLogout": false,
      "protocol": "openid-connect",
      "attributes": {
        "saml.assertion.signature": "false",
        "saml.force.post.binding": "false",
        "saml.multivalued.roles": "false",
        "saml.encrypt": "false",
        "saml.server.signature": "false",
        "saml.server.signature.keyinfo.ext": "false",
        "exclude.session.state.from.auth.response": "false",
        "saml_force_name_id_format": "false",
        "saml.client.signature": "false",
        "tls.client.certificate.bound.access.tokens": "false",
        "saml.authnstatement": "false",
        "display.on.consent.screen": "false",
        "saml.onetimeuse.condition": "false"
      },
      "authenticationFlowBindingOverrides": {},
      "fullScopeAllowed": true,
      "nodeReRegistrationTimeout": -1,
      "defaultClientScopes": [
        "role_list",
        "profile",
        "email"
      ],
      "optionalClientScopes": [
        "address",
        "phone",
        "offline_access"
      ]
    },
    {
      "id": "e797470e-f129-4589-b220-35a2416b6e00",
      "clientId": "app-auth-vanilla",
      "rootUrl": "",
      "adminUrl": "",
      "baseUrl": "",
      "surrogateAuthRequired": false,
      "enabled": true,
      "clientAuthenticatorType": "client-secret",
      "secret": "**********",
      "redirectUris": [
        "http://localhost:8080/*"
      ],
      "webOrigins": [
        "http://localhost:8080"
      ],
      "notBefore": 0,
      "bearerOnly": true,
      "consentRequired": false,
      "standardFlowEnabled": true,
      "implicitFlowEnabled": false,
      "directAccessGrantsEnabled": true,
      "serviceAccountsEnabled": true,
      "authorizationServicesEnabled": true,
      "publicClient": false,
      "frontchannelLogout": false,
      "protocol": "openid-connect",
      "attributes": {
        "saml.assertion.signature": "false",
        "saml.force.post.binding": "false",
        "saml.multivalued.roles": "false",
        "saml.encrypt": "false",
        "saml.server.signature": "false",
        "saml.server.signature.keyinfo.ext": "false",
        "exclude.session.state.from.auth.response": "false",
        "saml_force_name_id_format": "false",
        "saml.client.signature": "false",
        "tls.client.certificate.bound.access.tokens": "false",
        "saml.authnstatement": "false",
        "display.on.consent.screen": "false",
        "saml.onetimeuse.condition": "false"
      },
      "authenticationFlowBindingOverrides": {},
      "fullScopeAllowed": true,
      "nodeReRegistrationTimeout": -1,
      "protocolMappers": [
        {
          "id": "14463c19-4d78-4609-9524-a9f231a6343a",
          "name": "Client Host",
          "protocol": "openid-connect",
          "protocolMapper": "oidc-usersessionmodel-note-mapper",
          "consentRequired": false,
          "config": {
            "user.session.note": "clientHost",
            "id.token.claim": "true",
            "access.token.claim": "true",
            "claim.name": "clientHost",
            "jsonType.label": "String"
          }
        },
        {
          "id": "a0230bdd-d804-452c-9d88-2fd5e2147966",
          "name": "Client IP Address",
          "protocol": "openid-connect",
          "protocolMapper": "oidc-usersessionmodel-note-mapper",
          "consentRequired": false,
          "config": {
            "user.session.note": "clientAddress",
            "id.token.claim": "true",
            "access.token.claim": "true",
            "claim.name": "clientAddress",
            "jsonType.label": "String"
          }
        },
        {
          "id": "a8a2bede-4986-4ccc-9c1d-4214b50967fe",
          "name": "Client ID",
          "protocol": "openid-connect",
          "protocolMapper": "oidc-usersessionmodel-note-mapper",
          "consentRequired": false,
          "config": {
            "user.session.note": "clientId",
            "id.token.claim": "true",
            "access.token.claim": "true",
            "claim.name": "clientId",
            "jsonType.label": "String"
          }
        }
      ],
      "defaultClientScopes": [
        "role_list",
        "profile",
        "email"
      ],
      "optionalClientScopes": [
        "address",
        "phone",
        "offline_access"
      ],
      "authorizationSettings": {
        "allowRemoteResourceManagement": false,
        "policyEnforcementMode": "ENFORCING",
        "resources": [
          {
            "name": "Default Resource",
            "uri": "/*",
            "type": "urn:app-auth-vanilla:resources:default",
            "ownerManagedAccess": false,
            "attributes": {},
            "_id": "eda1f570-de14-4da3-be6e-2d901b2373f3"
          }
        ],
        "policies": [
          {
            "id": "ddf58348-0bb6-4134-8067-da4dde75bd34",
            "name": "Default Policy",
            "description": "A policy that grants access only for users within this realm",
            "type": "js",
            "logic": "POSITIVE",
            "decisionStrategy": "AFFIRMATIVE",
            "config": {
              "code": "// by default, grants any permission associated with this policy\n$evaluation.grant();\n"
            }
          },
          {
            "id": "4ecd69e3-c297-4460-ba86-985effe4337b",
            "name": "Default Permission",
            "description": "A permission that applies to the default resource type",
            "type": "resource",
            "logic": "POSITIVE",
            "decisionStrategy": "UNANIMOUS",
            "config": {
              "defaultResourceType": "urn:app-auth-vanilla:resources:default",
              "applyPolicies": "[\"Default Policy\"]"
            }
          }
        ],
        "scopes": []
      }
    },
    {
      "id": "614b4ffa-78d0-4dd6-962d-9a771d6c0785",
      "clientId": "my-resource-server",
      "rootUrl": "http://localhost:8080/my-resource-server",
      "adminUrl": "http://localhost:8080/my-resource-server",
      "surrogateAuthRequired": false,
      "enabled": true,
      "clientAuthenticatorType": "client-secret",
      "secret": "**********",
      "redirectUris": [
        "http://localhost:8080/my-resource-server/*"
      ],
      "webOrigins": [
        "http://localhost:8080"
      ],
      "notBefore": 0,
      "bearerOnly": false,
      "consentRequired": false,
      "standardFlowEnabled": true,
      "implicitFlowEnabled": false,
      "directAccessGrantsEnabled": true,
      "serviceAccountsEnabled": true,
      "authorizationServicesEnabled": true,
      "publicClient": false,
      "frontchannelLogout": false,
      "protocol": "openid-connect",
      "attributes": {
        "saml.assertion.signature": "false",
        "saml.force.post.binding": "false",
        "saml.multivalued.roles": "false",
        "saml.encrypt": "false",
        "saml.server.signature": "false",
        "saml.server.signature.keyinfo.ext": "false",
        "exclude.session.state.from.auth.response": "false",
        "saml_force_name_id_format": "false",
        "saml.client.signature": "false",
        "tls.client.certificate.bound.access.tokens": "false",
        "saml.authnstatement": "false",
        "display.on.consent.screen": "false",
        "saml.onetimeuse.condition": "false"
      },
      "authenticationFlowBindingOverrides": {},
      "fullScopeAllowed": true,
      "nodeReRegistrationTimeout": -1,
      "protocolMappers": [
        {
          "id": "2adbdbee-874d-49f4-933f-de305e716ab3",
          "name": "Client ID",
          "protocol": "openid-connect",
          "protocolMapper": "oidc-usersessionmodel-note-mapper",
          "consentRequired": false,
          "config": {
            "user.session.note": "clientId",
            "id.token.claim": "true",
            "access.token.claim": "true",
            "claim.name": "clientId",
            "jsonType.label": "String"
          }
        },
        {
          "id": "21cdb08f-cc02-47e3-82ee-4956c7e90705",
          "name": "Client Host",
          "protocol": "openid-connect",
          "protocolMapper": "oidc-usersessionmodel-note-mapper",
          "consentRequired": false,
          "config": {
            "user.session.note": "clientHost",
            "id.token.claim": "true",
            "access.token.claim": "true",
            "claim.name": "clientHost",
            "jsonType.label": "String"
          }
        },
        {
          "id": "43e4dd34-3afa-4c66-9e0d-3f0765241fc6",
          "name": "Client IP Address",
          "protocol": "openid-connect",
          "protocolMapper": "oidc-usersessionmodel-note-mapper",
          "consentRequired": false,
          "config": {
            "user.session.note": "clientAddress",
            "id.token.claim": "true",
            "access.token.claim": "true",
            "claim.name": "clientAddress",
            "jsonType.label": "String"
          }
        }
      ],
      "defaultClientScopes": [
        "role_list",
        "profile",
        "email"
      ],
      "optionalClientScopes": [
        "address",
        "phone",
        "offline_access"
      ],
      "authorizationSettings": {
        "allowRemoteResourceManagement": false,
        "policyEnforcementMode": "ENFORCING",
        "resources": [
          {
            "name": "Default Resource",
            "uri": "/*",
            "type": "urn:my-resource-server:resources:default",
            "ownerManagedAccess": false,
            "attributes": {},
            "_id": "9f9c3cb2-b3dc-4584-b6f0-4388b2c92e18"
          }
        ],
        "policies": [
          {
            "id": "4ed457a3-70dd-46e4-a0f6-84b181e9bdc5",
            "name": "Default Policy",
            "description": "A policy that grants access only for users within this realm",
            "type": "js",
            "logic": "POSITIVE",
            "decisionStrategy": "AFFIRMATIVE",
            "config": {
              "code": "// by default, grants any permission associated with this policy\n$evaluation.grant();\n"
            }
          },
          {
            "id": "1a3d968c-a195-418b-8f17-a84efe1b3921",
            "name": "Default Permission",
            "description": "A permission that applies to the default resource type",
            "type": "resource",
            "logic": "POSITIVE",
            "decisionStrategy": "UNANIMOUS",
            "config": {
              "defaultResourceType": "urn:my-resource-server:resources:default",
              "applyPolicies": "[\"Default Policy\"]"
            }
          }
        ],
        "scopes": []
      }
    },
    {
      "id": "7dea5e13-3436-447d-8297-b362881d6c5d",
      "clientId": "bearer-only-app1",
      "surrogateAuthRequired": false,
      "enabled": true,
      "clientAuthenticatorType": "client-secret",
      "secret": "**********",
      "redirectUris": [
        "http://localhost:8084/bearer/*"
      ],
      "webOrigins": [],
      "notBefore": 0,
      "bearerOnly": true,
      "consentRequired": false,
      "standardFlowEnabled": true,
      "implicitFlowEnabled": false,
      "directAccessGrantsEnabled": true,
      "serviceAccountsEnabled": false,
      "publicClient": false,
      "frontchannelLogout": false,
      "protocol": "openid-connect",
      "attributes": {
        "saml.assertion.signature": "false",
        "saml.force.post.binding": "false",
        "saml.multivalued.roles": "false",
        "saml.encrypt": "false",
        "saml.server.signature": "false",
        "saml.server.signature.keyinfo.ext": "false",
        "exclude.session.state.from.auth.response": "false",
        "saml_force_name_id_format": "false",
        "saml.client.signature": "false",
        "tls.client.certificate.bound.access.tokens": "false",
        "saml.authnstatement": "false",
        "display.on.consent.screen": "false",
        "saml.onetimeuse.condition": "false"
      },
      "authenticationFlowBindingOverrides": {},
      "fullScopeAllowed": true,
      "nodeReRegistrationTimeout": -1,
      "protocolMappers": [
        {
          "id": "c46df30b-800f-4bbc-8d1e-9e8045b21cc3",
          "name": "Client ID",
          "protocol": "openid-connect",
          "protocolMapper": "oidc-usersessionmodel-note-mapper",
          "consentRequired": false,
          "config": {
            "user.session.note": "clientId",
            "id.token.claim": "true",
            "access.token.claim": "true",
            "claim.name": "clientId",
            "jsonType.label": "String"
          }
        },
        {
          "id": "68ef7893-c5ee-4328-ac5b-0548347a0361",
          "name": "Client Host",
          "protocol": "openid-connect",
          "protocolMapper": "oidc-usersessionmodel-note-mapper",
          "consentRequired": false,
          "config": {
            "user.session.note": "clientHost",
            "id.token.claim": "true",
            "access.token.claim": "true",
            "claim.name": "clientHost",
            "jsonType.label": "String"
          }
        },
        {
          "id": "0a32a17a-c82c-4759-86ad-554aa2c21b9c",
          "name": "Client IP Address",
          "protocol": "openid-connect",
          "protocolMapper": "oidc-usersessionmodel-note-mapper",
          "consentRequired": false,
          "config": {
            "user.session.note": "clientAddress",
            "id.token.claim": "true",
            "access.token.claim": "true",
            "claim.name": "clientAddress",
            "jsonType.label": "String"
          }
        }
      ],
      "defaultClientScopes": [
        "role_list",
        "profile",
        "email"
      ],
      "optionalClientScopes": [
        "address",
        "phone",
        "offline_access"
      ]
    },
    {
      "id": "9e8e91a3-f268-48cf-a109-a83fa6a2abd9",
      "clientId": "account",
      "name": "${client_account}",
      "baseUrl": "/auth/realms/hello-world-auth/account",
      "surrogateAuthRequired": false,
      "enabled": true,
      "clientAuthenticatorType": "client-secret",
      "secret": "**********",
      "defaultRoles": [
        "view-profile",
        "manage-account"
      ],
      "redirectUris": [
        "/auth/realms/hello-world-auth/account/*"
      ],
      "webOrigins": [],
      "notBefore": 0,
      "bearerOnly": false,
      "consentRequired": false,
      "standardFlowEnabled": true,
      "implicitFlowEnabled": false,
      "directAccessGrantsEnabled": false,
      "serviceAccountsEnabled": false,
      "publicClient": false,
      "frontchannelLogout": false,
      "protocol": "openid-connect",
      "attributes": {},
      "authenticationFlowBindingOverrides": {},
      "fullScopeAllowed": false,
      "nodeReRegistrationTimeout": 0,
      "defaultClientScopes": [
        "role_list",
        "profile",
        "email"
      ],
      "optionalClientScopes": [
        "address",
        "phone",
        "offline_access"
      ]
    },
    {
      "id": "f5e274e6-1c15-4d73-af03-2c76040c464a",
      "clientId": "broker",
      "name": "${client_broker}",
      "surrogateAuthRequired": false,
      "enabled": true,
      "clientAuthenticatorType": "client-secret",
      "secret": "**********",
      "redirectUris": [],
      "webOrigins": [],
      "notBefore": 0,
      "bearerOnly": false,
      "consentRequired": false,
      "standardFlowEnabled": true,
      "implicitFlowEnabled": false,
      "directAccessGrantsEnabled": false,
      "serviceAccountsEnabled": false,
      "publicClient": false,
      "frontchannelLogout": false,
      "protocol": "openid-connect",
      "attributes": {},
      "authenticationFlowBindingOverrides": {},
      "fullScopeAllowed": false,
      "nodeReRegistrationTimeout": 0,
      "defaultClientScopes": [
        "role_list",
        "profile",
        "email"
      ],
      "optionalClientScopes": [
        "address",
        "phone",
        "offline_access"
      ]
    },
    {
      "id": "f675d8d9-5fc6-4cb3-bf90-e5a05d044062",
      "clientId": "admin-cli",
      "name": "${client_admin-cli}",
      "surrogateAuthRequired": false,
      "enabled": true,
      "clientAuthenticatorType": "client-secret",
      "secret": "**********",
      "redirectUris": [],
      "webOrigins": [],
      "notBefore": 0,
      "bearerOnly": false,
      "consentRequired": false,
      "standardFlowEnabled": false,
      "implicitFlowEnabled": false,
      "directAccessGrantsEnabled": true,
      "serviceAccountsEnabled": false,
      "publicClient": true,
      "frontchannelLogout": false,
      "protocol": "openid-connect",
      "attributes": {},
      "authenticationFlowBindingOverrides": {},
      "fullScopeAllowed": false,
      "nodeReRegistrationTimeout": 0,
      "defaultClientScopes": [
        "role_list",
        "profile",
        "email"
      ],
      "optionalClientScopes": [
        "address",
        "phone",
        "offline_access"
      ]
    },
    {
      "id": "23b8220f-fb43-4ddc-9f1d-50c3fad536dd",
      "clientId": "realm-management",
      "name": "${client_realm-management}",
      "surrogateAuthRequired": false,
      "enabled": true,
      "clientAuthenticatorType": "client-secret",
      "secret": "**********",
      "redirectUris": [],
      "webOrigins": [],
      "notBefore": 0,
      "bearerOnly": true,
      "consentRequired": false,
      "standardFlowEnabled": true,
      "implicitFlowEnabled": false,
      "directAccessGrantsEnabled": false,
      "serviceAccountsEnabled": false,
      "authorizationServicesEnabled": true,
      "publicClient": false,
      "frontchannelLogout": false,
      "protocol": "openid-connect",
      "attributes": {},
      "authenticationFlowBindingOverrides": {},
      "fullScopeAllowed": false,
      "nodeReRegistrationTimeout": 0,
      "defaultClientScopes": [
        "role_list",
        "profile",
        "email"
      ],
      "optionalClientScopes": [
        "address",
        "phone",
        "offline_access"
      ],
      "authorizationSettings": {
        "allowRemoteResourceManagement": false,
        "policyEnforcementMode": "ENFORCING",
        "resources": [
          {
            "name": "client.resource.e797470e-f129-4589-b220-35a2416b6e00",
            "type": "Client",
            "ownerManagedAccess": false,
            "attributes": {},
            "_id": "8f9cb7ba-9fd3-4326-802d-c3bb742843bf",
            "scopes": [
              {
                "name": "view"
              },
              {
                "name": "map-roles-client-scope"
              },
              {
                "name": "map-roles"
              },
              {
                "name": "configure"
              },
              {
                "name": "manage"
              },
              {
                "name": "map-roles-composite"
              },
              {
                "name": "token-exchange"
              }
            ]
          },
          {
            "name": "role.resource.bcc0ebd8-455f-4915-926a-161ebf2690dc",
            "type": "Role",
            "ownerManagedAccess": false,
            "attributes": {},
            "_id": "8974b992-cadd-4b3b-85d4-560c8d0d4a87",
            "scopes": [
              {
                "name": "map-role-composite"
              },
              {
                "name": "map-role-client-scope"
              },
              {
                "name": "map-role"
              }
            ]
          },
          {
            "name": "Users",
            "ownerManagedAccess": false,
            "attributes": {},
            "_id": "76a6df1b-dd5d-40c4-9a2b-6c7eefbc533c",
            "scopes": [
              {
                "name": "user-impersonated"
              },
              {
                "name": "view"
              },
              {
                "name": "manage-group-membership"
              },
              {
                "name": "impersonate"
              },
              {
                "name": "map-roles"
              },
              {
                "name": "manage"
              }
            ]
          },
          {
            "name": "role.resource.a286e83f-e259-4fae-83f0-d3062dc9524b",
            "type": "Role",
            "ownerManagedAccess": false,
            "attributes": {},
            "_id": "b3e274d1-2c28-4322-9a3d-937b08922e1c",
            "scopes": [
              {
                "name": "map-role-composite"
              },
              {
                "name": "map-role-client-scope"
              },
              {
                "name": "map-role"
              }
            ]
          },
          {
            "name": "role.resource.cf3c761d-7fc3-4642-a7f3-bdd726e67a74",
            "type": "Role",
            "ownerManagedAccess": false,
            "attributes": {},
            "_id": "d31d709a-e171-4a3f-8970-010ffab04b79",
            "scopes": [
              {
                "name": "map-role-composite"
              },
              {
                "name": "map-role-client-scope"
              },
              {
                "name": "map-role"
              }
            ]
          },
          {
            "name": "group.resource.58a9a22a-e4a3-473b-aa9c-0c96061701aa",
            "ownerManagedAccess": false,
            "attributes": {},
            "_id": "db22db01-f6a7-4425-bdf4-f8406809aaa6",
            "scopes": [
              {
                "name": "manage-members"
              },
              {
                "name": "view"
              },
              {
                "name": "manage-membership"
              },
              {
                "name": "view-members"
              },
              {
                "name": "manage"
              }
            ]
          }
        ],
        "policies": [
          {
            "id": "a933bfbc-5214-4bef-a21c-c2f2562ddef9",
            "name": "manage.permission.client.e797470e-f129-4589-b220-35a2416b6e00",
            "type": "scope",
            "logic": "POSITIVE",
            "decisionStrategy": "UNANIMOUS",
            "config": {
              "resources": "[\"client.resource.e797470e-f129-4589-b220-35a2416b6e00\"]",
              "scopes": "[\"manage\"]"
            }
          },
          {
            "id": "519600e1-05e4-41c5-b7d7-f60810fe9997",
            "name": "configure.permission.client.e797470e-f129-4589-b220-35a2416b6e00",
            "type": "scope",
            "logic": "POSITIVE",
            "decisionStrategy": "UNANIMOUS",
            "config": {
              "resources": "[\"client.resource.e797470e-f129-4589-b220-35a2416b6e00\"]",
              "scopes": "[\"configure\"]"
            }
          },
          {
            "id": "89d48d85-58d3-4095-a921-c68dca7ff873",
            "name": "view.permission.client.e797470e-f129-4589-b220-35a2416b6e00",
            "type": "scope",
            "logic": "POSITIVE",
            "decisionStrategy": "UNANIMOUS",
            "config": {
              "resources": "[\"client.resource.e797470e-f129-4589-b220-35a2416b6e00\"]",
              "scopes": "[\"view\"]"
            }
          },
          {
            "id": "8eabf2df-7b82-40d8-91ab-61627f4bb189",
            "name": "map-roles.permission.client.e797470e-f129-4589-b220-35a2416b6e00",
            "type": "scope",
            "logic": "POSITIVE",
            "decisionStrategy": "UNANIMOUS",
            "config": {
              "resources": "[\"client.resource.e797470e-f129-4589-b220-35a2416b6e00\"]",
              "scopes": "[\"map-roles\"]"
            }
          },
          {
            "id": "6671c1dd-f132-4ba9-9707-4f49918c5de2",
            "name": "map-roles-client-scope.permission.client.e797470e-f129-4589-b220-35a2416b6e00",
            "type": "scope",
            "logic": "POSITIVE",
            "decisionStrategy": "UNANIMOUS",
            "config": {
              "resources": "[\"client.resource.e797470e-f129-4589-b220-35a2416b6e00\"]",
              "scopes": "[\"map-roles-client-scope\"]"
            }
          },
          {
            "id": "14a73535-7ab4-40aa-8e05-648738dfc2fd",
            "name": "map-roles-composite.permission.client.e797470e-f129-4589-b220-35a2416b6e00",
            "type": "scope",
            "logic": "POSITIVE",
            "decisionStrategy": "UNANIMOUS",
            "config": {
              "resources": "[\"client.resource.e797470e-f129-4589-b220-35a2416b6e00\"]",
              "scopes": "[\"map-roles-composite\"]"
            }
          },
          {
            "id": "87b86c97-0d3d-41e8-af24-8d175511e246",
            "name": "token-exchange.permission.client.e797470e-f129-4589-b220-35a2416b6e00",
            "type": "scope",
            "logic": "POSITIVE",
            "decisionStrategy": "UNANIMOUS",
            "config": {
              "resources": "[\"client.resource.e797470e-f129-4589-b220-35a2416b6e00\"]",
              "scopes": "[\"token-exchange\"]"
            }
          },
          {
            "id": "2e7006ba-0ab8-40fa-b8c1-e42edae29535",
            "name": "map-role.permission.bcc0ebd8-455f-4915-926a-161ebf2690dc",
            "type": "scope",
            "logic": "POSITIVE",
            "decisionStrategy": "AFFIRMATIVE",
            "config": {
              "resources": "[\"role.resource.bcc0ebd8-455f-4915-926a-161ebf2690dc\"]",
              "scopes": "[\"map-role\"]"
            }
          },
          {
            "id": "5e066105-5ae9-4261-a137-38b925d5d9d8",
            "name": "map-role-client-scope.permission.bcc0ebd8-455f-4915-926a-161ebf2690dc",
            "type": "scope",
            "logic": "POSITIVE",
            "decisionStrategy": "AFFIRMATIVE",
            "config": {
              "resources": "[\"role.resource.bcc0ebd8-455f-4915-926a-161ebf2690dc\"]",
              "scopes": "[\"map-role-client-scope\"]"
            }
          },
          {
            "id": "644aea2c-528e-4363-b50f-2ec3496e0c89",
            "name": "map-role-composite.permission.bcc0ebd8-455f-4915-926a-161ebf2690dc",
            "type": "scope",
            "logic": "POSITIVE",
            "decisionStrategy": "AFFIRMATIVE",
            "config": {
              "resources": "[\"role.resource.bcc0ebd8-455f-4915-926a-161ebf2690dc\"]",
              "scopes": "[\"map-role-composite\"]"
            }
          },
          {
            "id": "70237620-215a-46b9-93d9-69ceff0c61a4",
            "name": "manage.permission.users",
            "type": "scope",
            "logic": "POSITIVE",
            "decisionStrategy": "UNANIMOUS",
            "config": {
              "resources": "[\"Users\"]",
              "scopes": "[\"manage\"]"
            }
          },
          {
            "id": "26ff9f54-cda4-46cf-bddd-e6e8d626bc9d",
            "name": "view.permission.users",
            "type": "scope",
            "logic": "POSITIVE",
            "decisionStrategy": "UNANIMOUS",
            "config": {
              "resources": "[\"Users\"]",
              "scopes": "[\"view\"]"
            }
          },
          {
            "id": "f95588d1-364b-4519-9f83-d0653b487b81",
            "name": "map-roles.permission.users",
            "type": "scope",
            "logic": "POSITIVE",
            "decisionStrategy": "UNANIMOUS",
            "config": {
              "resources": "[\"Users\"]",
              "scopes": "[\"map-roles\"]"
            }
          },
          {
            "id": "7e48ded0-1128-444a-a5d1-e0d4611fc0f8",
            "name": "manage-group-membership.permission.users",
            "type": "scope",
            "logic": "POSITIVE",
            "decisionStrategy": "UNANIMOUS",
            "config": {
              "resources": "[\"Users\"]",
              "scopes": "[\"manage-group-membership\"]"
            }
          },
          {
            "id": "f8e999ba-0acd-4b5e-b33b-4a4704f1977c",
            "name": "admin-impersonating.permission.users",
            "type": "scope",
            "logic": "POSITIVE",
            "decisionStrategy": "UNANIMOUS",
            "config": {
              "resources": "[\"Users\"]",
              "scopes": "[\"impersonate\"]"
            }
          },
          {
            "id": "afc5b8d2-f707-44e6-8feb-4ff6ddb9169e",
            "name": "user-impersonated.permission.users",
            "type": "scope",
            "logic": "POSITIVE",
            "decisionStrategy": "UNANIMOUS",
            "config": {
              "resources": "[\"Users\"]",
              "scopes": "[\"user-impersonated\"]"
            }
          },
          {
            "id": "95f43554-e451-4714-a8a0-e8ff48dddbc9",
            "name": "map-role.permission.a286e83f-e259-4fae-83f0-d3062dc9524b",
            "type": "scope",
            "logic": "POSITIVE",
            "decisionStrategy": "AFFIRMATIVE",
            "config": {
              "resources": "[\"role.resource.a286e83f-e259-4fae-83f0-d3062dc9524b\"]",
              "scopes": "[\"map-role\"]"
            }
          },
          {
            "id": "599656f9-481c-42e7-9804-d001206f4441",
            "name": "map-role-client-scope.permission.a286e83f-e259-4fae-83f0-d3062dc9524b",
            "type": "scope",
            "logic": "POSITIVE",
            "decisionStrategy": "AFFIRMATIVE",
            "config": {
              "resources": "[\"role.resource.a286e83f-e259-4fae-83f0-d3062dc9524b\"]",
              "scopes": "[\"map-role-client-scope\"]"
            }
          },
          {
            "id": "6d8e00a1-9b32-4ea3-a87d-f5cfbf903c4c",
            "name": "map-role-composite.permission.a286e83f-e259-4fae-83f0-d3062dc9524b",
            "type": "scope",
            "logic": "POSITIVE",
            "decisionStrategy": "AFFIRMATIVE",
            "config": {
              "resources": "[\"role.resource.a286e83f-e259-4fae-83f0-d3062dc9524b\"]",
              "scopes": "[\"map-role-composite\"]"
            }
          },
          {
            "id": "d3270ab1-6872-43b8-b3d6-4920eecb3811",
            "name": "map-role.permission.cf3c761d-7fc3-4642-a7f3-bdd726e67a74",
            "type": "scope",
            "logic": "POSITIVE",
            "decisionStrategy": "AFFIRMATIVE",
            "config": {
              "resources": "[\"role.resource.cf3c761d-7fc3-4642-a7f3-bdd726e67a74\"]",
              "scopes": "[\"map-role\"]"
            }
          },
          {
            "id": "c0b106b8-a154-4995-85cb-8ff80277ea9e",
            "name": "map-role-client-scope.permission.cf3c761d-7fc3-4642-a7f3-bdd726e67a74",
            "type": "scope",
            "logic": "POSITIVE",
            "decisionStrategy": "AFFIRMATIVE",
            "config": {
              "resources": "[\"role.resource.cf3c761d-7fc3-4642-a7f3-bdd726e67a74\"]",
              "scopes": "[\"map-role-client-scope\"]"
            }
          },
          {
            "id": "f939ed00-6daa-4b73-82f0-7ea9f7b2614b",
            "name": "map-role-composite.permission.cf3c761d-7fc3-4642-a7f3-bdd726e67a74",
            "type": "scope",
            "logic": "POSITIVE",
            "decisionStrategy": "AFFIRMATIVE",
            "config": {
              "resources": "[\"role.resource.cf3c761d-7fc3-4642-a7f3-bdd726e67a74\"]",
              "scopes": "[\"map-role-composite\"]"
            }
          },
          {
            "id": "ca2e2151-b1cd-4ccb-a948-bce5e3bb9c9f",
            "name": "manage.permission.group.58a9a22a-e4a3-473b-aa9c-0c96061701aa",
            "type": "scope",
            "logic": "POSITIVE",
            "decisionStrategy": "UNANIMOUS",
            "config": {
              "resources": "[\"group.resource.58a9a22a-e4a3-473b-aa9c-0c96061701aa\"]",
              "scopes": "[\"manage\"]"
            }
          },
          {
            "id": "51219359-af53-45f7-aacf-7e568666d6c2",
            "name": "view.permission.group.58a9a22a-e4a3-473b-aa9c-0c96061701aa",
            "type": "scope",
            "logic": "POSITIVE",
            "decisionStrategy": "UNANIMOUS",
            "config": {
              "resources": "[\"group.resource.58a9a22a-e4a3-473b-aa9c-0c96061701aa\"]",
              "scopes": "[\"view\"]"
            }
          },
          {
            "id": "c40fcf6b-1c0e-49ab-a933-8634ec72ed44",
            "name": "manage.members.permission.group.58a9a22a-e4a3-473b-aa9c-0c96061701aa",
            "type": "scope",
            "logic": "POSITIVE",
            "decisionStrategy": "UNANIMOUS",
            "config": {
              "resources": "[\"group.resource.58a9a22a-e4a3-473b-aa9c-0c96061701aa\"]",
              "scopes": "[\"manage-members\"]"
            }
          },
          {
            "id": "3e8e980a-067b-4844-8db5-f7bd3a93a700",
            "name": "view.members.permission.group.58a9a22a-e4a3-473b-aa9c-0c96061701aa",
            "type": "scope",
            "logic": "POSITIVE",
            "decisionStrategy": "UNANIMOUS",
            "config": {
              "resources": "[\"group.resource.58a9a22a-e4a3-473b-aa9c-0c96061701aa\"]",
              "scopes": "[\"view-members\"]"
            }
          },
          {
            "id": "0460711f-1d3f-4579-8cc4-7394ad2df29e",
            "name": "manage.membership.permission.group.58a9a22a-e4a3-473b-aa9c-0c96061701aa",
            "type": "scope",
            "logic": "POSITIVE",
            "decisionStrategy": "UNANIMOUS",
            "config": {
              "resources": "[\"group.resource.58a9a22a-e4a3-473b-aa9c-0c96061701aa\"]",
              "scopes": "[\"manage-membership\"]"
            }
          }
        ],
        "scopes": [
          {
            "id": "6dec0633-dc0c-4df2-8f62-10df512e183e",
            "name": "manage"
          },
          {
            "id": "3aa4e6db-ff2d-4c2f-859c-6fa6afb69956",
            "name": "view"
          },
          {
            "id": "83097638-6a8d-4d25-812c-1cc68ad5b029",
            "name": "map-roles"
          },
          {
            "id": "6bd1daa2-82c3-472b-9396-fe3cfc9dc3e2",
            "name": "map-roles-client-scope"
          },
          {
            "id": "96bec9cd-321b-48ae-845b-d2fa316808f8",
            "name": "map-roles-composite"
          },
          {
            "id": "fa990ab3-9353-4571-b701-0ea633e3dcef",
            "name": "configure"
          },
          {
            "id": "bd28cc76-ec72-440a-9444-ed7cf7172eeb",
            "name": "token-exchange"
          },
          {
            "id": "3bf66714-daf7-4422-ab9b-04f6e8508ebd",
            "name": "map-role"
          },
          {
            "id": "5307a4a3-7536-439a-865b-152783c4831a",
            "name": "map-role-client-scope"
          },
          {
            "id": "d8517d6b-8704-49ae-9fbb-ecc58029c3fd",
            "name": "map-role-composite"
          },
          {
            "id": "1a62ed3b-3708-4841-8f26-4dd630cb0fe2",
            "name": "impersonate"
          },
          {
            "id": "dd7ca3f3-2cdb-4fdc-9496-d0788abffe9a",
            "name": "user-impersonated"
          },
          {
            "id": "65f31bd1-94cf-4d0e-8ef8-ab14ebc801c5",
            "name": "manage-group-membership"
          },
          {
            "id": "148a499d-4e96-43f1-9328-7eaad790f048",
            "name": "manage-members"
          },
          {
            "id": "fc95d77f-ac6a-42d6-b98c-8297a28e4f33",
            "name": "view-members"
          },
          {
            "id": "89435164-6957-4d63-85dd-7c2975d41217",
            "name": "manage-membership"
          }
        ]
      }
    },
    {
      "id": "579b582c-3e33-4fe1-9c00-4f5e304a1bcc",
      "clientId": "security-admin-console",
      "name": "${client_security-admin-console}",
      "baseUrl": "/auth/admin/hello-world-auth/console/index.html",
      "surrogateAuthRequired": false,
      "enabled": true,
      "clientAuthenticatorType": "client-secret",
      "secret": "**********",
      "redirectUris": [
        "/auth/admin/hello-world-auth/console/*"
      ],
      "webOrigins": [],
      "notBefore": 0,
      "bearerOnly": false,
      "consentRequired": false,
      "standardFlowEnabled": true,
      "implicitFlowEnabled": false,
      "directAccessGrantsEnabled": false,
      "serviceAccountsEnabled": false,
      "publicClient": true,
      "frontchannelLogout": false,
      "protocol": "openid-connect",
      "attributes": {},
      "authenticationFlowBindingOverrides": {},
      "fullScopeAllowed": false,
      "nodeReRegistrationTimeout": 0,
      "protocolMappers": [
        {
          "id": "1678f90c-e536-40ac-b205-de2153e60d4c",
          "name": "locale",
          "protocol": "openid-connect",
          "protocolMapper": "oidc-usermodel-attribute-mapper",
          "consentRequired": false,
          "config": {
            "userinfo.token.claim": "true",
            "user.attribute": "locale",
            "id.token.claim": "true",
            "access.token.claim": "true",
            "claim.name": "locale",
            "jsonType.label": "String"
          }
        }
      ],
      "defaultClientScopes": [
        "role_list",
        "profile",
        "email"
      ],
      "optionalClientScopes": [
        "address",
        "phone",
        "offline_access"
      ]
    }
  ],
  "clientScopes": [
    {
      "id": "63972d9d-492d-432a-b7fb-0b0ebb6cb5a9",
      "name": "address",
      "description": "OpenID Connect built-in scope: address",
      "protocol": "openid-connect",
      "attributes": {
        "consent.screen.text": "${addressScopeConsentText}",
        "display.on.consent.screen": "true"
      },
      "protocolMappers": [
        {
          "id": "40d92e99-fcf5-4b61-81e7-2e8ccc9b3cf9",
          "name": "address",
          "protocol": "openid-connect",
          "protocolMapper": "oidc-address-mapper",
          "consentRequired": false,
          "config": {
            "user.attribute.formatted": "formatted",
            "user.attribute.country": "country",
            "user.attribute.postal_code": "postal_code",
            "userinfo.token.claim": "true",
            "user.attribute.street": "street",
            "id.token.claim": "true",
            "user.attribute.region": "region",
            "access.token.claim": "true",
            "user.attribute.locality": "locality"
          }
        }
      ]
    },
    {
      "id": "12c95425-ca35-45a8-9f7a-a0a43e9a60be",
      "name": "email",
      "description": "OpenID Connect built-in scope: email",
      "protocol": "openid-connect",
      "attributes": {
        "consent.screen.text": "${emailScopeConsentText}",
        "display.on.consent.screen": "true"
      },
      "protocolMappers": [
        {
          "id": "91446bd9-b132-410f-ac96-c175b4c6f432",
          "name": "email",
          "protocol": "openid-connect",
          "protocolMapper": "oidc-usermodel-property-mapper",
          "consentRequired": false,
          "config": {
            "userinfo.token.claim": "true",
            "user.attribute": "email",
            "id.token.claim": "true",
            "access.token.claim": "true",
            "claim.name": "email",
            "jsonType.label": "String"
          }
        },
        {
          "id": "4aed5081-2547-4b40-a97f-86fa289f3d1c",
          "name": "email verified",
          "protocol": "openid-connect",
          "protocolMapper": "oidc-usermodel-property-mapper",
          "consentRequired": false,
          "config": {
            "userinfo.token.claim": "true",
            "user.attribute": "emailVerified",
            "id.token.claim": "true",
            "access.token.claim": "true",
            "claim.name": "email_verified",
            "jsonType.label": "boolean"
          }
        }
      ]
    },
    {
      "id": "6b411f3c-2dea-44c5-b803-6ae3ec8c41cf",
      "name": "offline_access",
      "description": "OpenID Connect built-in scope: offline_access",
      "protocol": "openid-connect",
      "attributes": {
        "consent.screen.text": "${offlineAccessScopeConsentText}",
        "display.on.consent.screen": "true"
      }
    },
    {
      "id": "0dca9029-68bd-4d12-8822-e31c65d5fa56",
      "name": "phone",
      "description": "OpenID Connect built-in scope: phone",
      "protocol": "openid-connect",
      "attributes": {
        "consent.screen.text": "${phoneScopeConsentText}",
        "display.on.consent.screen": "true"
      },
      "protocolMappers": [
        {
          "id": "23d05874-cbc6-4c9c-9c87-9e3e7fa40345",
          "name": "phone number",
          "protocol": "openid-connect",
          "protocolMapper": "oidc-usermodel-attribute-mapper",
          "consentRequired": false,
          "config": {
            "userinfo.token.claim": "true",
            "user.attribute": "phoneNumber",
            "id.token.claim": "true",
            "access.token.claim": "true",
            "claim.name": "phone_number",
            "jsonType.label": "String"
          }
        },
        {
          "id": "31f6b0fc-d934-4486-9d28-6eeff238c42c",
          "name": "phone number verified",
          "protocol": "openid-connect",
          "protocolMapper": "oidc-usermodel-attribute-mapper",
          "consentRequired": false,
          "config": {
            "userinfo.token.claim": "true",
            "user.attribute": "phoneNumberVerified",
            "id.token.claim": "true",
            "access.token.claim": "true",
            "claim.name": "phone_number_verified",
            "jsonType.label": "boolean"
          }
        }
      ]
    },
    {
      "id": "84ad416f-3fef-4723-bf25-3c0fa9b0b765",
      "name": "profile",
      "description": "OpenID Connect built-in scope: profile",
      "protocol": "openid-connect",
      "attributes": {
        "consent.screen.text": "${profileScopeConsentText}",
        "display.on.consent.screen": "true"
      },
      "protocolMappers": [
        {
          "id": "f637ab96-2343-46e0-b28c-bb4ea6586286",
          "name": "birthdate",
          "protocol": "openid-connect",
          "protocolMapper": "oidc-usermodel-attribute-mapper",
          "consentRequired": false,
          "config": {
            "userinfo.token.claim": "true",
            "user.attribute": "birthdate",
            "id.token.claim": "true",
            "access.token.claim": "true",
            "claim.name": "birthdate",
            "jsonType.label": "String"
          }
        },
        {
          "id": "12654635-f9d6-4ce5-849a-47aeeced6c21",
          "name": "updated at",
          "protocol": "openid-connect",
          "protocolMapper": "oidc-usermodel-attribute-mapper",
          "consentRequired": false,
          "config": {
            "userinfo.token.claim": "true",
            "user.attribute": "updatedAt",
            "id.token.claim": "true",
            "access.token.claim": "true",
            "claim.name": "updated_at",
            "jsonType.label": "String"
          }
        },
        {
          "id": "5cfb32f9-fb81-416b-a62f-ebb05c59f136",
          "name": "locale",
          "protocol": "openid-connect",
          "protocolMapper": "oidc-usermodel-attribute-mapper",
          "consentRequired": false,
          "config": {
            "userinfo.token.claim": "true",
            "user.attribute": "locale",
            "id.token.claim": "true",
            "access.token.claim": "true",
            "claim.name": "locale",
            "jsonType.label": "String"
          }
        },
        {
          "id": "91cd12ea-e4d7-4d76-8b6b-36a0efb0639c",
          "name": "given name",
          "protocol": "openid-connect",
          "protocolMapper": "oidc-usermodel-property-mapper",
          "consentRequired": false,
          "config": {
            "userinfo.token.claim": "true",
            "user.attribute": "firstName",
            "id.token.claim": "true",
            "access.token.claim": "true",
            "claim.name": "given_name",
            "jsonType.label": "String"
          }
        },
        {
          "id": "491d3b8e-5ac7-4181-b36f-786578276208",
          "name": "family name",
          "protocol": "openid-connect",
          "protocolMapper": "oidc-usermodel-property-mapper",
          "consentRequired": false,
          "config": {
            "userinfo.token.claim": "true",
            "user.attribute": "lastName",
            "id.token.claim": "true",
            "access.token.claim": "true",
            "claim.name": "family_name",
            "jsonType.label": "String"
          }
        },
        {
          "id": "f8334b4a-88e7-432c-b17d-dc22aadd8087",
          "name": "username",
          "protocol": "openid-connect",
          "protocolMapper": "oidc-usermodel-property-mapper",
          "consentRequired": false,
          "config": {
            "userinfo.token.claim": "true",
            "user.attribute": "username",
            "id.token.claim": "true",
            "access.token.claim": "true",
            "claim.name": "preferred_username",
            "jsonType.label": "String"
          }
        },
        {
          "id": "e1900cdc-9c04-42ef-b49b-05b8a03b1e2f",
          "name": "full name",
          "protocol": "openid-connect",
          "protocolMapper": "oidc-full-name-mapper",
          "consentRequired": false,
          "config": {
            "id.token.claim": "true",
            "access.token.claim": "true",
            "userinfo.token.claim": "true"
          }
        },
        {
          "id": "b0b71061-0c4e-465e-8ba1-ea59b6af3c9d",
          "name": "middle name",
          "protocol": "openid-connect",
          "protocolMapper": "oidc-usermodel-attribute-mapper",
          "consentRequired": false,
          "config": {
            "userinfo.token.claim": "true",
            "user.attribute": "middleName",
            "id.token.claim": "true",
            "access.token.claim": "true",
            "claim.name": "middle_name",
            "jsonType.label": "String"
          }
        },
        {
          "id": "e097848d-748b-471e-9a4c-2095ffd62778",
          "name": "profile",
          "protocol": "openid-connect",
          "protocolMapper": "oidc-usermodel-attribute-mapper",
          "consentRequired": false,
          "config": {
            "userinfo.token.claim": "true",
            "user.attribute": "profile",
            "id.token.claim": "true",
            "access.token.claim": "true",
            "claim.name": "profile",
            "jsonType.label": "String"
          }
        },
        {
          "id": "23bd5690-56a3-47bd-ab68-afb2daa96321",
          "name": "website",
          "protocol": "openid-connect",
          "protocolMapper": "oidc-usermodel-attribute-mapper",
          "consentRequired": false,
          "config": {
            "userinfo.token.claim": "true",
            "user.attribute": "website",
            "id.token.claim": "true",
            "access.token.claim": "true",
            "claim.name": "website",
            "jsonType.label": "String"
          }
        },
        {
          "id": "56a169c4-62b6-4d54-8887-50f16d2e55b7",
          "name": "gender",
          "protocol": "openid-connect",
          "protocolMapper": "oidc-usermodel-attribute-mapper",
          "consentRequired": false,
          "config": {
            "userinfo.token.claim": "true",
            "user.attribute": "gender",
            "id.token.claim": "true",
            "access.token.claim": "true",
            "claim.name": "gender",
            "jsonType.label": "String"
          }
        },
        {
          "id": "7ed81d03-1895-44ec-b58a-201fc4f10ac6",
          "name": "nickname",
          "protocol": "openid-connect",
          "protocolMapper": "oidc-usermodel-attribute-mapper",
          "consentRequired": false,
          "config": {
            "userinfo.token.claim": "true",
            "user.attribute": "nickname",
            "id.token.claim": "true",
            "access.token.claim": "true",
            "claim.name": "nickname",
            "jsonType.label": "String"
          }
        },
        {
          "id": "3100b2e5-4ada-4d4c-925b-5472b4697ec0",
          "name": "zoneinfo",
          "protocol": "openid-connect",
          "protocolMapper": "oidc-usermodel-attribute-mapper",
          "consentRequired": false,
          "config": {
            "userinfo.token.claim": "true",
            "user.attribute": "zoneinfo",
            "id.token.claim": "true",
            "access.token.claim": "true",
            "claim.name": "zoneinfo",
            "jsonType.label": "String"
          }
        },
        {
          "id": "07c83505-6f2d-413f-899e-91d022f69091",
          "name": "picture",
          "protocol": "openid-connect",
          "protocolMapper": "oidc-usermodel-attribute-mapper",
          "consentRequired": false,
          "config": {
            "userinfo.token.claim": "true",
            "user.attribute": "picture",
            "id.token.claim": "true",
            "access.token.claim": "true",
            "claim.name": "picture",
            "jsonType.label": "String"
          }
        }
      ]
    },
    {
      "id": "ba9d0241-e3a6-47da-a475-e475de471159",
      "name": "role_list",
      "description": "SAML role list",
      "protocol": "saml",
      "attributes": {
        "consent.screen.text": "${samlRoleListScopeConsentText}",
        "display.on.consent.screen": "true"
      },
      "protocolMappers": [
        {
          "id": "6b023f73-4e34-4632-8e4c-7577bc75d58c",
          "name": "role list",
          "protocol": "saml",
          "protocolMapper": "saml-role-list-mapper",
          "consentRequired": false,
          "config": {
            "single": "false",
            "attribute.nameformat": "Basic",
            "attribute.name": "Role"
          }
        }
      ]
    }
  ],
  "defaultDefaultClientScopes": [
    "role_list",
    "profile",
    "email"
  ],
  "defaultOptionalClientScopes": [
    "offline_access",
    "address",
    "phone"
  ],
  "browserSecurityHeaders": {
    "xContentTypeOptions": "nosniff",
    "xRobotsTag": "none",
    "xFrameOptions": "SAMEORIGIN",
    "xXSSProtection": "1; mode=block",
    "contentSecurityPolicy": "frame-src 'self'; frame-ancestors 'self'; object-src 'none';",
    "strictTransportSecurity": "max-age=31536000; includeSubDomains"
  },
  "smtpServer": {},
  "eventsEnabled": false,
  "eventsListeners": [
    "jboss-logging"
  ],
  "enabledEventTypes": [],
  "adminEventsEnabled": false,
  "adminEventsDetailsEnabled": false,
  "components": {
    "org.keycloak.services.clientregistration.policy.ClientRegistrationPolicy": [
      {
        "id": "bd5a713a-3a74-44ee-a242-ede2ce72af10",
        "name": "Full Scope Disabled",
        "providerId": "scope",
        "subType": "anonymous",
        "subComponents": {},
        "config": {}
      },
      {
        "id": "d44c1f14-9971-48cb-8245-a89f18ce0554",
        "name": "Allowed Protocol Mapper Types",
        "providerId": "allowed-protocol-mappers",
        "subType": "anonymous",
        "subComponents": {},
        "config": {
          "allowed-protocol-mapper-types": [
            "oidc-address-mapper",
            "saml-user-property-mapper",
            "saml-user-attribute-mapper",
            "oidc-full-name-mapper",
            "oidc-usermodel-attribute-mapper",
            "oidc-sha256-pairwise-sub-mapper",
            "saml-role-list-mapper",
            "oidc-usermodel-property-mapper"
          ]
        }
      },
      {
        "id": "fd9a2299-1276-449f-b5cc-ffe2549ce767",
        "name": "Allowed Protocol Mapper Types",
        "providerId": "allowed-protocol-mappers",
        "subType": "authenticated",
        "subComponents": {},
        "config": {
          "allowed-protocol-mapper-types": [
            "oidc-sha256-pairwise-sub-mapper",
            "oidc-usermodel-property-mapper",
            "saml-user-attribute-mapper",
            "saml-user-property-mapper",
            "oidc-full-name-mapper",
            "saml-role-list-mapper",
            "oidc-address-mapper",
            "oidc-usermodel-attribute-mapper"
          ]
        }
      },
      {
        "id": "328bb82e-5d98-443c-bca7-097c78bf541d",
        "name": "Consent Required",
        "providerId": "consent-required",
        "subType": "anonymous",
        "subComponents": {},
        "config": {}
      },
      {
        "id": "3c1b4bd5-bc44-42b7-933e-b7f3f92ac9b8",
        "name": "Max Clients Limit",
        "providerId": "max-clients",
        "subType": "anonymous",
        "subComponents": {},
        "config": {
          "max-clients": [
            "200"
          ]
        }
      },
      {
        "id": "eb7b0d94-7dd9-40bd-ac3b-fef7f2fbd4c0",
        "name": "Allowed Client Scopes",
        "providerId": "allowed-client-templates",
        "subType": "authenticated",
        "subComponents": {},
        "config": {
          "allow-default-scopes": [
            "true"
          ]
        }
      },
      {
        "id": "a7fa1d7a-6cd7-4b54-86d8-b5d90227f2ca",
        "name": "Allowed Client Scopes",
        "providerId": "allowed-client-templates",
        "subType": "anonymous",
        "subComponents": {},
        "config": {
          "allow-default-scopes": [
            "true"
          ]
        }
      },
      {
        "id": "964afd73-eaf0-443b-b45a-4beaa6375d87",
        "name": "Trusted Hosts",
        "providerId": "trusted-hosts",
        "subType": "anonymous",
        "subComponents": {},
        "config": {
          "host-sending-registration-request-must-match": [
            "true"
          ],
          "client-uris-must-match": [
            "true"
          ]
        }
      }
    ],
    "org.keycloak.keys.KeyProvider": [
      {
        "id": "4fc57ad4-b99e-4108-823c-af4c7bc917f9",
        "name": "rsa-generated",
        "providerId": "rsa-generated",
        "subComponents": {},
        "config": {
          "priority": [
            "100"
          ]
        }
      },
      {
        "id": "3314410f-ec1e-4926-ac2a-da2ff01c1a26",
        "name": "hmac-generated",
        "providerId": "hmac-generated",
        "subComponents": {},
        "config": {
          "priority": [
            "100"
          ]
        }
      },
      {
        "id": "89cdbd0d-0baf-450d-9859-d95d46d24428",
        "name": "aes-generated",
        "providerId": "aes-generated",
        "subComponents": {},
        "config": {
          "priority": [
            "100"
          ]
        }
      }
    ]
  },
  "internationalizationEnabled": false,
  "supportedLocales": [],
  "authenticationFlows": [
    {
      "id": "d5c03456-9732-450a-b0e6-18ae684d2100",
      "alias": "Handle Existing Account",
      "description": "Handle what to do if there is existing account with same email/username like authenticated identity provider",
      "providerId": "basic-flow",
      "topLevel": false,
      "builtIn": true,
      "authenticationExecutions": [
        {
          "authenticator": "idp-confirm-link",
          "requirement": "REQUIRED",
          "priority": 10,
          "userSetupAllowed": false,
          "autheticatorFlow": false
        },
        {
          "authenticator": "idp-email-verification",
          "requirement": "ALTERNATIVE",
          "priority": 20,
          "userSetupAllowed": false,
          "autheticatorFlow": false
        },
        {
          "requirement": "ALTERNATIVE",
          "priority": 30,
          "flowAlias": "Verify Existing Account by Re-authentication",
          "userSetupAllowed": false,
          "autheticatorFlow": true
        }
      ]
    },
    {
      "id": "021754b4-d7fc-4cf0-b510-57290e9ec680",
      "alias": "Verify Existing Account by Re-authentication",
      "description": "Reauthentication of existing account",
      "providerId": "basic-flow",
      "topLevel": false,
      "builtIn": true,
      "authenticationExecutions": [
        {
          "authenticator": "idp-username-password-form",
          "requirement": "REQUIRED",
          "priority": 10,
          "userSetupAllowed": false,
          "autheticatorFlow": false
        },
        {
          "authenticator": "auth-otp-form",
          "requirement": "OPTIONAL",
          "priority": 20,
          "userSetupAllowed": false,
          "autheticatorFlow": false
        }
      ]
    },
    {
      "id": "0005fae7-8ff5-4bf6-95a9-a8affb027259",
      "alias": "browser",
      "description": "browser based authentication",
      "providerId": "basic-flow",
      "topLevel": true,
      "builtIn": true,
      "authenticationExecutions": [
        {
          "authenticator": "auth-cookie",
          "requirement": "ALTERNATIVE",
          "priority": 10,
          "userSetupAllowed": false,
          "autheticatorFlow": false
        },
        {
          "authenticator": "auth-spnego",
          "requirement": "DISABLED",
          "priority": 20,
          "userSetupAllowed": false,
          "autheticatorFlow": false
        },
        {
          "authenticator": "identity-provider-redirector",
          "requirement": "ALTERNATIVE",
          "priority": 25,
          "userSetupAllowed": false,
          "autheticatorFlow": false
        },
        {
          "requirement": "ALTERNATIVE",
          "priority": 30,
          "flowAlias": "forms",
          "userSetupAllowed": false,
          "autheticatorFlow": true
        }
      ]
    },
    {
      "id": "996de95d-3d2b-471a-939e-c222271d4019",
      "alias": "clients",
      "description": "Base authentication for clients",
      "providerId": "client-flow",
      "topLevel": true,
      "builtIn": true,
      "authenticationExecutions": [
        {
          "authenticator": "client-secret",
          "requirement": "ALTERNATIVE",
          "priority": 10,
          "userSetupAllowed": false,
          "autheticatorFlow": false
        },
        {
          "authenticator": "client-jwt",
          "requirement": "ALTERNATIVE",
          "priority": 20,
          "userSetupAllowed": false,
          "autheticatorFlow": false
        },
        {
          "authenticator": "client-secret-jwt",
          "requirement": "ALTERNATIVE",
          "priority": 30,
          "userSetupAllowed": false,
          "autheticatorFlow": false
        }
      ]
    },
    {
      "id": "df26c1be-9535-4286-8d19-8f2699c2de9d",
      "alias": "direct grant",
      "description": "OpenID Connect Resource Owner Grant",
      "providerId": "basic-flow",
      "topLevel": true,
      "builtIn": true,
      "authenticationExecutions": [
        {
          "authenticator": "direct-grant-validate-username",
          "requirement": "REQUIRED",
          "priority": 10,
          "userSetupAllowed": false,
          "autheticatorFlow": false
        },
        {
          "authenticator": "direct-grant-validate-password",
          "requirement": "REQUIRED",
          "priority": 20,
          "userSetupAllowed": false,
          "autheticatorFlow": false
        },
        {
          "authenticator": "direct-grant-validate-otp",
          "requirement": "OPTIONAL",
          "priority": 30,
          "userSetupAllowed": false,
          "autheticatorFlow": false
        }
      ]
    },
    {
      "id": "32b11746-9e29-4ef4-a855-b8bb9043afa1",
      "alias": "docker auth",
      "description": "Used by Docker clients to authenticate against the IDP",
      "providerId": "basic-flow",
      "topLevel": true,
      "builtIn": true,
      "authenticationExecutions": [
        {
          "authenticator": "docker-http-basic-authenticator",
          "requirement": "REQUIRED",
          "priority": 10,
          "userSetupAllowed": false,
          "autheticatorFlow": false
        }
      ]
    },
    {
      "id": "38fdced4-ea8e-4b55-a6e0-9484310293eb",
      "alias": "first broker login",
      "description": "Actions taken after first broker login with identity provider account, which is not yet linked to any Keycloak account",
      "providerId": "basic-flow",
      "topLevel": true,
      "builtIn": true,
      "authenticationExecutions": [
        {
          "authenticatorConfig": "review profile config",
          "authenticator": "idp-review-profile",
          "requirement": "REQUIRED",
          "priority": 10,
          "userSetupAllowed": false,
          "autheticatorFlow": false
        },
        {
          "authenticatorConfig": "create unique user config",
          "authenticator": "idp-create-user-if-unique",
          "requirement": "ALTERNATIVE",
          "priority": 20,
          "userSetupAllowed": false,
          "autheticatorFlow": false
        },
        {
          "requirement": "ALTERNATIVE",
          "priority": 30,
          "flowAlias": "Handle Existing Account",
          "userSetupAllowed": false,
          "autheticatorFlow": true
        }
      ]
    },
    {
      "id": "54e6f317-febb-4af7-a4d0-a51c4f1227e6",
      "alias": "forms",
      "description": "Username, password, otp and other auth forms.",
      "providerId": "basic-flow",
      "topLevel": false,
      "builtIn": true,
      "authenticationExecutions": [
        {
          "authenticator": "auth-username-password-form",
          "requirement": "REQUIRED",
          "priority": 10,
          "userSetupAllowed": false,
          "autheticatorFlow": false
        },
        {
          "authenticator": "auth-otp-form",
          "requirement": "OPTIONAL",
          "priority": 20,
          "userSetupAllowed": false,
          "autheticatorFlow": false
        }
      ]
    },
    {
      "id": "20816689-470f-4c1e-a51e-63c9e9a71c26",
      "alias": "registration",
      "description": "registration flow",
      "providerId": "basic-flow",
      "topLevel": true,
      "builtIn": true,
      "authenticationExecutions": [
        {
          "authenticator": "registration-page-form",
          "requirement": "REQUIRED",
          "priority": 10,
          "flowAlias": "registration form",
          "userSetupAllowed": false,
          "autheticatorFlow": true
        }
      ]
    },
    {
      "id": "fe864be4-19a0-4987-9a05-4f4f4a8b7c1d",
      "alias": "registration form",
      "description": "registration form",
      "providerId": "form-flow",
      "topLevel": false,
      "builtIn": true,
      "authenticationExecutions": [
        {
          "authenticator": "registration-user-creation",
          "requirement": "REQUIRED",
          "priority": 20,
          "userSetupAllowed": false,
          "autheticatorFlow": false
        },
        {
          "authenticator": "registration-profile-action",
          "requirement": "REQUIRED",
          "priority": 40,
          "userSetupAllowed": false,
          "autheticatorFlow": false
        },
        {
          "authenticator": "registration-password-action",
          "requirement": "REQUIRED",
          "priority": 50,
          "userSetupAllowed": false,
          "autheticatorFlow": false
        },
        {
          "authenticator": "registration-recaptcha-action",
          "requirement": "DISABLED",
          "priority": 60,
          "userSetupAllowed": false,
          "autheticatorFlow": false
        }
      ]
    },
    {
      "id": "b086c11d-0870-4cc4-bde7-6347104d0015",
      "alias": "reset credentials",
      "description": "Reset credentials for a user if they forgot their password or something",
      "providerId": "basic-flow",
      "topLevel": true,
      "builtIn": true,
      "authenticationExecutions": [
        {
          "authenticator": "reset-credentials-choose-user",
          "requirement": "REQUIRED",
          "priority": 10,
          "userSetupAllowed": false,
          "autheticatorFlow": false
        },
        {
          "authenticator": "reset-credential-email",
          "requirement": "REQUIRED",
          "priority": 20,
          "userSetupAllowed": false,
          "autheticatorFlow": false
        },
        {
          "authenticator": "reset-password",
          "requirement": "REQUIRED",
          "priority": 30,
          "userSetupAllowed": false,
          "autheticatorFlow": false
        },
        {
          "authenticator": "reset-otp",
          "requirement": "OPTIONAL",
          "priority": 40,
          "userSetupAllowed": false,
          "autheticatorFlow": false
        }
      ]
    },
    {
      "id": "4660d001-5c88-4f3b-bb33-1847bcfff6af",
      "alias": "saml ecp",
      "description": "SAML ECP Profile Authentication Flow",
      "providerId": "basic-flow",
      "topLevel": true,
      "builtIn": true,
      "authenticationExecutions": [
        {
          "authenticator": "http-basic-authenticator",
          "requirement": "REQUIRED",
          "priority": 10,
          "userSetupAllowed": false,
          "autheticatorFlow": false
        }
      ]
    }
  ],
  "authenticatorConfig": [
    {
      "id": "b87f43e6-c49c-41c6-ade5-e78fb540084f",
      "alias": "create unique user config",
      "config": {
        "require.password.update.after.registration": "false"
      }
    },
    {
      "id": "4f2e6964-614e-4786-925f-c00144a5ebed",
      "alias": "review profile config",
      "config": {
        "update.profile.on.first.login": "missing"
      }
    }
  ],
  "requiredActions": [
    {
      "alias": "CONFIGURE_TOTP",
      "name": "Configure OTP",
      "providerId": "CONFIGURE_TOTP",
      "enabled": true,
      "defaultAction": false,
      "config": {}
    },
    {
      "alias": "UPDATE_PASSWORD",
      "name": "Update Password",
      "providerId": "UPDATE_PASSWORD",
      "enabled": true,
      "defaultAction": false,
      "config": {}
    },
    {
      "alias": "UPDATE_PROFILE",
      "name": "Update Profile",
      "providerId": "UPDATE_PROFILE",
      "enabled": true,
      "defaultAction": false,
      "config": {}
    },
    {
      "alias": "VERIFY_EMAIL",
      "name": "Verify Email",
      "providerId": "VERIFY_EMAIL",
      "enabled": true,
      "defaultAction": false,
      "config": {}
    },
    {
      "alias": "terms_and_conditions",
      "name": "Terms and Conditions",
      "providerId": "terms_and_conditions",
      "enabled": false,
      "defaultAction": false,
      "config": {}
    }
  ],
  "browserFlow": "browser",
  "registrationFlow": "registration",
  "directGrantFlow": "direct grant",
  "resetCredentialsFlow": "reset credentials",
  "clientAuthenticationFlow": "clients",
  "dockerAuthenticationFlow": "docker auth",
  "attributes": {
    "_browser_header.xXSSProtection": "1; mode=block",
    "_browser_header.xFrameOptions": "SAMEORIGIN",
    "_browser_header.strictTransportSecurity": "max-age=31536000; includeSubDomains",
    "permanentLockout": "false",
    "quickLoginCheckMilliSeconds": "1000",
    "_browser_header.xRobotsTag": "none",
    "maxFailureWaitSeconds": "900",
    "minimumQuickLoginWaitSeconds": "60",
    "failureFactor": "30",
    "actionTokenGeneratedByUserLifespan": "300",
    "maxDeltaTimeSeconds": "43200",
    "_browser_header.xContentTypeOptions": "nosniff",
    "offlineSessionMaxLifespan": "5184000",
    "actionTokenGeneratedByAdminLifespan": "43200",
    "bruteForceProtected": "false",
    "_browser_header.contentSecurityPolicy": "frame-src 'self'; frame-ancestors 'self'; object-src 'none';",
    "waitIncrementSeconds": "60",
    "offlineSessionMaxLifespanEnabled": "false"
  },
  "keycloakVersion": "4.1.0.Final",
  "userManagedAccessAllowed": false
}